lab2a-div/divider.vcd
$date
	Thu Mar  3 22:36:39 2022
$end
$version
	Icarus Verilog
$end
$timescale
	1ps
$end
$scope module test_divider $end
$var wire 16 ! o_div_remainder [15:0] $end
$var wire 16 " o_div_quotient [15:0] $end
$var wire 16 # o_1iter_remainder [15:0] $end
$var wire 16 $ o_1iter_quotient [15:0] $end
$var wire 16 % o_1iter_dividend [15:0] $end
$var reg 16 & exp_dividend [15:0] $end
$var reg 16 ' exp_quotient [15:0] $end
$var reg 16 ( exp_remainder [15:0] $end
$var reg 16 ) i_dividend [15:0] $end
$var reg 16 * i_divisor [15:0] $end
$var reg 16 + i_quotient [15:0] $end
$var reg 16 , i_remainder [15:0] $end
$var integer 32 - __ignore [31:0] $end
$var integer 32 . allTests [31:0] $end
$var integer 32 / divTests [31:0] $end
$var integer 32 0 errors [31:0] $end
$var integer 32 1 input_file [31:0] $end
$var integer 32 2 randomSeed [31:0] $end
$scope module div $end
$var wire 16 3 i_dividend [15:0] $end
$var wire 16 4 i_divisor [15:0] $end
$var wire 16 5 tmp_q [15:0] $end
$var wire 16 6 tmp_r [15:0] $end
$var wire 16 7 o_remainder [15:0] $end
$var wire 16 8 o_quotient [15:0] $end
$scope begin genblk1[0] $end
$scope module h0 $end
$var wire 16 9 i_dividend [15:0] $end
$var wire 16 : i_divisor [15:0] $end
$var wire 16 ; i_quotient [15:0] $end
$var wire 16 < i_remainder [15:0] $end
$var wire 16 = tmp_r [15:0] $end
$var wire 16 > o_remainder [15:0] $end
$var wire 16 ? o_quotient [15:0] $end
$var wire 16 @ o_dividend [15:0] $end
$upscope $end
$upscope $end
$scope begin genblk1[1] $end
$scope module h0 $end
$var wire 16 A i_dividend [15:0] $end
$var wire 16 B i_divisor [15:0] $end
$var wire 16 C i_quotient [15:0] $end
$var wire 16 D i_remainder [15:0] $end
$var wire 16 E tmp_r [15:0] $end
$var wire 16 F o_remainder [15:0] $end
$var wire 16 G o_quotient [15:0] $end
$var wire 16 H o_dividend [15:0] $end
$upscope $end
$upscope $end
$scope begin genblk1[2] $end
$scope module h0 $end
$var wire 16 I i_dividend [15:0] $end
$var wire 16 J i_divisor [15:0] $end
$var wire 16 K i_quotient [15:0] $end
$var wire 16 L i_remainder [15:0] $end
$var wire 16 M tmp_r [15:0] $end
$var wire 16 N o_remainder [15:0] $end
$var wire 16 O o_quotient [15:0] $end
$var wire 16 P o_dividend [15:0] $end
$upscope $end
$upscope $end
$scope begin genblk1[3] $end
$scope module h0 $end
$var wire 16 Q i_dividend [15:0] $end
$var wire 16 R i_divisor [15:0] $end
$var wire 16 S i_quotient [15:0] $end
$var wire 16 T i_remainder [15:0] $end
$var wire 16 U tmp_r [15:0] $end
$var wire 16 V o_remainder [15:0] $end
$var wire 16 W o_quotient [15:0] $end
$var wire 16 X o_dividend [15:0] $end
$upscope $end
$upscope $end
$scope begin genblk1[4] $end
$scope module h0 $end
$var wire 16 Y i_dividend [15:0] $end
$var wire 16 Z i_divisor [15:0] $end
$var wire 16 [ i_quotient [15:0] $end
$var wire 16 \ i_remainder [15:0] $end
$var wire 16 ] tmp_r [15:0] $end
$var wire 16 ^ o_remainder [15:0] $end
$var wire 16 _ o_quotient [15:0] $end
$var wire 16 ` o_dividend [15:0] $end
$upscope $end
$upscope $end
$scope begin genblk1[5] $end
$scope module h0 $end
$var wire 16 a i_dividend [15:0] $end
$var wire 16 b i_divisor [15:0] $end
$var wire 16 c i_quotient [15:0] $end
$var wire 16 d i_remainder [15:0] $end
$var wire 16 e tmp_r [15:0] $end
$var wire 16 f o_remainder [15:0] $end
$var wire 16 g o_quotient [15:0] $end
$var wire 16 h o_dividend [15:0] $end
$upscope $end
$upscope $end
$scope begin genblk1[6] $end
$scope module h0 $end
$var wire 16 i i_dividend [15:0] $end
$var wire 16 j i_divisor [15:0] $end
$var wire 16 k i_quotient [15:0] $end
$var wire 16 l i_remainder [15:0] $end
$var wire 16 m tmp_r [15:0] $end
$var wire 16 n o_remainder [15:0] $end
$var wire 16 o o_quotient [15:0] $end
$var wire 16 p o_dividend [15:0] $end
$upscope $end
$upscope $end
$scope begin genblk1[7] $end
$scope module h0 $end
$var wire 16 q i_dividend [15:0] $end
$var wire 16 r i_divisor [15:0] $end
$var wire 16 s i_quotient [15:0] $end
$var wire 16 t i_remainder [15:0] $end
$var wire 16 u tmp_r [15:0] $end
$var wire 16 v o_remainder [15:0] $end
$var wire 16 w o_quotient [15:0] $end
$var wire 16 x o_dividend [15:0] $end
$upscope $end
$upscope $end
$scope begin genblk1[8] $end
$scope module h0 $end
$var wire 16 y i_dividend [15:0] $end
$var wire 16 z i_divisor [15:0] $end
$var wire 16 { i_quotient [15:0] $end
$var wire 16 | i_remainder [15:0] $end
$var wire 16 } tmp_r [15:0] $end
$var wire 16 ~ o_remainder [15:0] $end
$var wire 16 !" o_quotient [15:0] $end
$var wire 16 "" o_dividend [15:0] $end
$upscope $end
$upscope $end
$scope begin genblk1[9] $end
$scope module h0 $end
$var wire 16 #" i_dividend [15:0] $end
$var wire 16 $" i_divisor [15:0] $end
$var wire 16 %" i_quotient [15:0] $end
$var wire 16 &" i_remainder [15:0] $end
$var wire 16 '" tmp_r [15:0] $end
$var wire 16 (" o_remainder [15:0] $end
$var wire 16 )" o_quotient [15:0] $end
$var wire 16 *" o_dividend [15:0] $end
$upscope $end
$upscope $end
$scope begin genblk1[10] $end
$scope module h0 $end
$var wire 16 +" i_dividend [15:0] $end
$var wire 16 ," i_divisor [15:0] $end
$var wire 16 -" i_quotient [15:0] $end
$var wire 16 ." i_remainder [15:0] $end
$var wire 16 /" tmp_r [15:0] $end
$var wire 16 0" o_remainder [15:0] $end
$var wire 16 1" o_quotient [15:0] $end
$var wire 16 2" o_dividend [15:0] $end
$upscope $end
$upscope $end
$scope begin genblk1[11] $end
$scope module h0 $end
$var wire 16 3" i_dividend [15:0] $end
$var wire 16 4" i_divisor [15:0] $end
$var wire 16 5" i_quotient [15:0] $end
$var wire 16 6" i_remainder [15:0] $end
$var wire 16 7" tmp_r [15:0] $end
$var wire 16 8" o_remainder [15:0] $end
$var wire 16 9" o_quotient [15:0] $end
$var wire 16 :" o_dividend [15:0] $end
$upscope $end
$upscope $end
$scope begin genblk1[12] $end
$scope module h0 $end
$var wire 16 ;" i_dividend [15:0] $end
$var wire 16 <" i_divisor [15:0] $end
$var wire 16 =" i_quotient [15:0] $end
$var wire 16 >" i_remainder [15:0] $end
$var wire 16 ?" tmp_r [15:0] $end
$var wire 16 @" o_remainder [15:0] $end
$var wire 16 A" o_quotient [15:0] $end
$var wire 16 B" o_dividend [15:0] $end
$upscope $end
$upscope $end
$scope begin genblk1[13] $end
$scope module h0 $end
$var wire 16 C" i_dividend [15:0] $end
$var wire 16 D" i_divisor [15:0] $end
$var wire 16 E" i_quotient [15:0] $end
$var wire 16 F" i_remainder [15:0] $end
$var wire 16 G" tmp_r [15:0] $end
$var wire 16 H" o_remainder [15:0] $end
$var wire 16 I" o_quotient [15:0] $end
$var wire 16 J" o_dividend [15:0] $end
$upscope $end
$upscope $end
$scope begin genblk1[14] $end
$scope module h0 $end
$var wire 16 K" i_dividend [15:0] $end
$var wire 16 L" i_divisor [15:0] $end
$var wire 16 M" i_quotient [15:0] $end
$var wire 16 N" i_remainder [15:0] $end
$var wire 16 O" tmp_r [15:0] $end
$var wire 16 P" o_remainder [15:0] $end
$var wire 16 Q" o_quotient [15:0] $end
$var wire 16 R" o_dividend [15:0] $end
$upscope $end
$upscope $end
$scope begin genblk1[15] $end
$scope module h0 $end
$var wire 16 S" i_dividend [15:0] $end
$var wire 16 T" i_divisor [15:0] $end
$var wire 16 U" i_quotient [15:0] $end
$var wire 16 V" i_remainder [15:0] $end
$var wire 16 W" tmp_r [15:0] $end
$var wire 16 X" o_remainder [15:0] $end
$var wire 16 Y" o_quotient [15:0] $end
$var wire 16 Z" o_dividend [15:0] $end
$upscope $end
$upscope $end
$upscope $end
$scope module divider_iter $end
$var wire 16 [" i_dividend [15:0] $end
$var wire 16 \" i_divisor [15:0] $end
$var wire 16 ]" i_quotient [15:0] $end
$var wire 16 ^" i_remainder [15:0] $end
$var wire 16 _" tmp_r [15:0] $end
$var wire 16 `" o_remainder [15:0] $end
$var wire 16 a" o_quotient [15:0] $end
$var wire 16 b" o_dividend [15:0] $end
$upscope $end
$scope task printPoints $end
$var reg 32 c" actual [31:0] $end
$var reg 32 d" possible [31:0] $end
$upscope $end
$upscope $end
$enddefinitions $end
#0
$dumpvars
bx d"
bx c"
b0 b"
b1 a"
b0 `"
b0 _"
b0 ^"
b0 ]"
b0 \"
b0 ["
b0 Z"
b1111111111111111 Y"
b0 X"
b0 W"
b0 V"
b111111111111111 U"
b0 T"
b0 S"
b0 R"
b111111111111111 Q"
b0 P"
b0 O"
b0 N"
b11111111111111 M"
b0 L"
b0 K"
b0 J"
b11111111111111 I"
b0 H"
b0 G"
b0 F"
b1111111111111 E"
b0 D"
b0 C"
b0 B"
b1111111111111 A"
b0 @"
b0 ?"
b0 >"
b111111111111 ="
b0 <"
b0 ;"
b0 :"
b111111111111 9"
b0 8"
b0 7"
b0 6"
b11111111111 5"
b0 4"
b0 3"
b0 2"
b11111111111 1"
b0 0"
b0 /"
b0 ."
b1111111111 -"
b0 ,"
b0 +"
b0 *"
b1111111111 )"
b0 ("
b0 '"
b0 &"
b111111111 %"
b0 $"
b0 #"
b0 ""
b111111111 !"
b0 ~
b0 }
b0 |
b11111111 {
b0 z
b0 y
b0 x
b11111111 w
b0 v
b0 u
b0 t
b1111111 s
b0 r
b0 q
b0 p
b1111111 o
b0 n
b0 m
b0 l
b111111 k
b0 j
b0 i
b0 h
b111111 g
b0 f
b0 e
b0 d
b11111 c
b0 b
b0 a
b0 `
b11111 _
b0 ^
b0 ]
b0 \
b1111 [
b0 Z
b0 Y
b0 X
b1111 W
b0 V
b0 U
b0 T
b111 S
b0 R
b0 Q
b0 P
b111 O
b0 N
b0 M
b0 L
b11 K
b0 J
b0 I
b0 H
b11 G
b0 F
b0 E
b0 D
b1 C
b0 B
b0 A
b0 @
b1 ?
b0 >
b0 =
b0 <
b0 ;
b0 :
b0 9
b0 8
b0 7
b0 6
b0 5
b0 4
b0 3
b10000000001011000100010000000000 2
b10000000000000000000000000000011 1
b0 0
bx /
b0 .
bx -
b0 ,
b0 +
b0 *
b0 )
bx (
bx '
bx &
b0 %
b1 $
b0 #
b0 "
b0 !
$end
#102000
b11010100100100 X"
b11010100100100 W"
b11010100100 @"
b11010100100 F"
b1101010010010 P"
b1101010010010 V"
b11010100100 ?"
b1101010010010 O"
b11010100 ("
b11010100 ."
b1101010010 8"
b1101010010 >"
b110101001001 H"
b110101001001 N"
b11010100 '"
b1101010010 7"
b110101001001 G"
b1101010 ~
b1101010 &"
b110101001 0"
b110101001 6"
b1101010 }
b110101001 /"
b1000000000000000 B"
b1000000000000000 C"
b11010 n
b11010 t
b100000000000000 :"
b100000000000000 ;"
b11010 m
b110101 v
b110101 |
b10000000000000 2"
b10000000000000 3"
b110 ^
b110 d
b110101 u
b1001000000000000 *"
b1001000000000000 +"
b110 ]
b1101 f
b1101 l
b100100000000000 ""
b100100000000000 #"
b1101 e
b10010000000000 x
b10010000000000 y
b11 V
b11 \
b1001001000000000 p
b1001001000000000 q
b1 N
b1 T
b11 U
b100100100000000 h
b100100100000000 i
b1 M
b1010010010000000 `
b1010010010000000 a
b101001001000000 X
b101001001000000 Y
b1010100100100000 P
b1010100100100000 Q
b1101010010010000 H
b1101010010010000 I
b110101001001000 @
b110101001001000 A
b110101001001000 %
b110101001001000 b"
b11010100100100 9
b11010100100100 )
b11010100100100 3
b11010100100100 ["
#110000
b101111010000 @"
b101111010000 F"
b10111101000000 P"
b10111101000000 V"
b101111010000 ?"
b10111101000000 O"
b101111010000001 X"
b101111010000001 W"
b10111101000 8"
b10111101000 >"
b1011110100000 H"
b1011110100000 N"
b10111101000 7"
b1011110100000 G"
b101111010 ("
b101111010 ."
b1000000000000000 R"
b1000000000000000 S"
b101111010 '"
b1011110100 0"
b1011110100 6"
b100000000000000 J"
b100000000000000 K"
b1011110100 /"
b10000000000000 B"
b10000000000000 C"
b10111101 ~
b10111101 &"
b1000000000000 :"
b1000000000000 ;"
b10111 f
b10111 l
b1011110 v
b1011110 |
b10111101 }
b100000000000 2"
b100000000000 3"
b10111 e
b101111 n
b101111 t
b1011110 u
b10000000000 *"
b10000000000 +"
b101 V
b101 \
b101111 m
b1000000000 ""
b1000000000 #"
b101 U
b1011 ^
b1011 d
b1000000100000000 x
b1000000100000000 y
b1011 ]
b100000010000000 p
b100000010000000 q
b10 N
b10 T
b1010000001000000 h
b1010000001000000 i
b1 F
b1 L
b10 M
b1101000000100000 `
b1101000000100000 a
b1 E
b1110100000010000 X
b1110100000010000 Y
b1111010000001000 P
b1111010000001000 Q
b111101000000100 H
b111101000000100 I
b101111010000001 !
b101111010000001 7
b0 "
b0 8
b0 ?
b0 C
b0 G
b0 K
b0 O
b0 S
b0 W
b0 [
b0 _
b0 c
b0 g
b0 k
b0 o
b0 s
b0 w
b0 {
b0 !"
b0 %"
b0 )"
b0 -"
b0 1"
b0 5"
b0 9"
b0 ="
b0 A"
b0 E"
b0 I"
b0 M"
b0 Q"
b0 U"
b0 Y"
b0 $
b0 a"
b1011110100000010 @
b1011110100000010 A
b1011110100000010 %
b1011110100000010 b"
b1101011000001001 *
b1101011000001001 4
b1101011000001001 :
b1101011000001001 B
b1101011000001001 J
b1101011000001001 R
b1101011000001001 Z
b1101011000001001 b
b1101011000001001 j
b1101011000001001 r
b1101011000001001 z
b1101011000001001 $"
b1101011000001001 ,"
b1101011000001001 4"
b1101011000001001 <"
b1101011000001001 D"
b1101011000001001 L"
b1101011000001001 T"
b1101011000001001 \"
b101111010000001 9
b101111010000001 )
b101111010000001 3
b101111010000001 ["
b0 /
b1 .
#118000
b11 .
b10 /
b101111010000001 (
b0 '
#120000
b1010110011000 H"
b1010110011000 N"
b1010110011000 G"
b101011001100011 !
b101011001100011 7
b101011001100011 X"
b101011001100 @"
b101011001100 F"
b101011001100011 W"
b101011001100 ?"
b10101100110001 P"
b10101100110001 V"
b1010110 v
b1010110 |
b10101100110 8"
b10101100110 >"
b10101100110001 O"
b1010110 u
b10101100110 7"
b101011 n
b101011 t
b1010110011 0"
b1010110011 6"
b1100000000000000 J"
b1100000000000000 K"
b101011 m
b101011001 ("
b101011001 ."
b1010110011 /"
b110000000000000 B"
b110000000000000 C"
b10101100 ~
b10101100 &"
b101011001 '"
b11000000000000 :"
b11000000000000 ;"
b10101 f
b10101 l
b10101100 }
b1100000000000 2"
b1100000000000 3"
b10101 e
b1000110000000000 *"
b1000110000000000 +"
b1100011000000000 ""
b1100011000000000 #"
b1010 ^
b1010 d
b110001100000000 x
b110001100000000 y
b1010 ]
b11000110000000 p
b11000110000000 q
b1001100011000000 h
b1001100011000000 i
b1100110001100000 `
b1100110001100000 a
b110011000110000 X
b110011000110000 Y
b1011001100011000 P
b1011001100011000 Q
b101100110001100 H
b101100110001100 I
b1010110011000110 @
b1010110011000110 A
b1010110011000110 %
b1010110011000110 b"
b111101100001101 *
b111101100001101 4
b111101100001101 :
b111101100001101 B
b111101100001101 J
b111101100001101 R
b111101100001101 Z
b111101100001101 b
b111101100001101 j
b111101100001101 r
b111101100001101 z
b111101100001101 $"
b111101100001101 ,"
b111101100001101 4"
b111101100001101 <"
b111101100001101 D"
b111101100001101 L"
b111101100001101 T"
b111101100001101 \"
b101011001100011 9
b101011001100011 )
b101011001100011 3
b101011001100011 ["
#128000
b101 .
b100 /
b101011001100011 (
#130000
b1 "
b1 8
b1 Y"
b1010100101000 !
b1010100101000 7
b1010100101000 X"
b1001100110001101 W"
b100110011000110 P"
b100110011000110 V"
b100110011000 8"
b100110011000 >"
b10011001100011 H"
b10011001100011 N"
b100110011000110 O"
b100110011000 7"
b1001100110001 @"
b1001100110001 F"
b10011001100011 G"
b1001100110001 ?"
b10011001100 0"
b10011001100 6"
b100000000000000 J"
b100000000000000 K"
b1001100110 ("
b1001100110 ."
b10011001100 /"
b1010000000000000 B"
b1010000000000000 C"
b100110011 ~
b100110011 &"
b1001100110 '"
b1101000000000000 :"
b1101000000000000 ;"
b1001 V
b1001 \
b10011001 v
b10011001 |
b100110011 }
b110100000000000 2"
b110100000000000 3"
b1001 U
b1001100 n
b1001100 t
b10011001 u
b11010000000000 *"
b11010000000000 +"
b100110 f
b100110 l
b1001100 m
b1101000000000 ""
b1101000000000 #"
b100 N
b100 T
b10011 ^
b10011 d
b100110 e
b1000110100000000 x
b1000110100000000 y
b100 M
b10011 ]
b1100011010000000 p
b1100011010000000 q
b110001101000000 h
b110001101000000 i
b10 F
b10 L
b11000110100000 `
b11000110100000 a
b1 >
b1 D
b10 E
b1001100011010000 X
b1001100011010000 Y
b1 #
b1 `"
b1 =
b1100110001101000 P
b1100110001101000 Q
b1 _"
b110011000110100 H
b110011000110100 I
b11001100011010 @
b11001100011010 A
b11001100011010 %
b11001100011010 b"
b1000010001100101 *
b1000010001100101 4
b1000010001100101 :
b1000010001100101 B
b1000010001100101 J
b1000010001100101 R
b1000010001100101 Z
b1000010001100101 b
b1000010001100101 j
b1000010001100101 r
b1000010001100101 z
b1000010001100101 $"
b1000010001100101 ,"
b1000010001100101 4"
b1000010001100101 <"
b1000010001100101 D"
b1000010001100101 L"
b1000010001100101 T"
b1000010001100101 \"
b1001100110001101 9
b1001100110001101 )
b1001100110001101 3
b1001100110001101 ["
#138000
b111 .
b110 /
b1 '
b1010100101000 (
#140000
b1010010000 0"
b1010010000 6"
b10100100001001 P"
b10100100001001 V"
b101001000010010 W"
b1010010000 /"
b1010010000100 H"
b1010010000100 N"
b10100100001001 O"
b101001000010 @"
b101001000010 F"
b1010010000100 G"
b101001000 ("
b101001000 ."
b10100100001 8"
b10100100001 >"
b101001000010 ?"
b0 R"
b0 S"
b101001000 '"
b10100100001 7"
b1000000000000000 J"
b1000000000000000 K"
b100000000000000 B"
b100000000000000 C"
b10100100 ~
b10100100 &"
b10000000000000 :"
b10000000000000 ;"
b101 V
b101 \
b10100 f
b10100 l
b1010010 v
b1010010 |
b10100100 }
b1001000000000000 2"
b1001000000000000 3"
b101 U
b10100 e
b101001 n
b101001 t
b1010010 u
b100100000000000 *"
b100100000000000 +"
b101001 m
b10010000000000 ""
b10010000000000 #"
b10 N
b10 T
b1010 ^
b1010 d
b1001000000000 x
b1001000000000 y
b10 M
b1010 ]
b100100000000 p
b100100000000 q
b1000010010000000 h
b1000010010000000 i
b1 F
b1 L
b100001001000000 `
b100001001000000 a
b0 >
b0 D
b1 E
b10000100100000 X
b10000100100000 Y
b0 #
b0 `"
b0 =
b1001000010010000 P
b1001000010010000 Q
b0 _"
b0 "
b0 8
b101001000010010 !
b101001000010010 7
b100100001001000 H
b100100001001000 I
b0 Y"
b101001000010010 X"
b1010010000100100 @
b1010010000100100 A
b1010010000100100 %
b1010010000100100 b"
b1110001100000001 *
b1110001100000001 4
b1110001100000001 :
b1110001100000001 B
b1110001100000001 J
b1110001100000001 R
b1110001100000001 Z
b1110001100000001 b
b1110001100000001 j
b1110001100000001 r
b1110001100000001 z
b1110001100000001 $"
b1110001100000001 ,"
b1110001100000001 4"
b1110001100000001 <"
b1110001100000001 D"
b1110001100000001 L"
b1110001100000001 T"
b1110001100000001 \"
b101001000010010 9
b101001000010010 )
b101001000010010 3
b101001000010010 ["
#148000
b1001 .
b1000 /
b101001000010010 (
b0 '
#150000
b11001101000 0"
b11001101000 6"
b1100110100001101 !
b1100110100001101 7
b11001101000 /"
b1100110100001101 X"
b110011010000110 P"
b110011010000110 V"
b1100110100001101 W"
b1100110100 ("
b1100110100 ."
b11001101000011 H"
b11001101000011 N"
b110011010000110 O"
b1100110100 '"
b1100110100001 @"
b1100110100001 F"
b11001101000011 G"
b110011010000 8"
b110011010000 >"
b1100110100001 ?"
b1000000000000000 R"
b1000000000000000 S"
b110011010 ~
b110011010 &"
b110011010000 7"
b100000000000000 J"
b100000000000000 K"
b110011010 }
b1010000000000000 B"
b1010000000000000 C"
b1101000000000000 :"
b1101000000000000 ;"
b11001101 v
b11001101 |
b110100000000000 2"
b110100000000000 3"
b110 N
b110 T
b1100110 n
b1100110 t
b11001101 u
b11010000000000 *"
b11010000000000 +"
b110 M
b110011 f
b110011 l
b1100110 m
b1101000000000 ""
b1101000000000 #"
b11001 ^
b11001 d
b110011 e
b110100000000 x
b110100000000 y
b11 F
b11 L
b1100 V
b1100 \
b11001 ]
b1000011010000000 p
b1000011010000000 q
b11 E
b1100 U
b100001101000000 h
b100001101000000 i
b1010000110100000 `
b1010000110100000 a
b1 >
b1 D
b1101000011010000 X
b1101000011010000 Y
b1 #
b1 `"
b1 =
b110100001101000 P
b110100001101000 Q
b1 _"
b11010000110100 H
b11010000110100 I
b1001101000011010 @
b1001101000011010 A
b1001101000011010 %
b1001101000011010 b"
b1111000101110110 *
b1111000101110110 4
b1111000101110110 :
b1111000101110110 B
b1111000101110110 J
b1111000101110110 R
b1111000101110110 Z
b1111000101110110 b
b1111000101110110 j
b1111000101110110 r
b1111000101110110 z
b1111000101110110 $"
b1111000101110110 ,"
b1111000101110110 4"
b1111000101110110 <"
b1111000101110110 D"
b1111000101110110 L"
b1111000101110110 T"
b1111000101110110 \"
b1100110100001101 9
b1100110100001101 )
b1100110100001101 3
b1100110100001101 ["
#158000
b1011 .
b1010 /
b1100110100001101 (
#160000
b110011010011110 O"
b11001101001111 H"
b11001101001111 N"
b11001101001111 G"
b1100110100111 @"
b1100110100111 F"
b1100110100111 ?"
b110011010011 8"
b110011010011 >"
b11001101001 0"
b11001101001 6"
b110011010011 7"
b11001101001 /"
b1110100000000000 2"
b1110100000000000 3"
b1111010000000000 *"
b1111010000000000 +"
b111101000000000 ""
b111101000000000 #"
b11110100000000 x
b11110100000000 y
b1001111010000000 p
b1001111010000000 q
b100111101000000 h
b100111101000000 i
b1010011110100000 `
b1010011110100000 a
b1101001111010000 X
b1101001111010000 Y
b1110101100011 W"
b110100111101000 P
b110100111101000 Q
b10 "
b10 8
b1110101100011 !
b1110101100011 7
b11010011110100 H
b11010011110100 I
b1 Q"
b1 U"
b111010110001 P"
b111010110001 V"
b10 Y"
b1110101100011 X"
b1001101001111010 @
b1001101001111010 A
b1001101001111010 %
b1001101001111010 b"
b101011111101101 *
b101011111101101 4
b101011111101101 :
b101011111101101 B
b101011111101101 J
b101011111101101 R
b101011111101101 Z
b101011111101101 b
b101011111101101 j
b101011111101101 r
b101011111101101 z
b101011111101101 $"
b101011111101101 ,"
b101011111101101 4"
b101011111101101 <"
b101011111101101 D"
b101011111101101 L"
b101011111101101 T"
b101011111101101 \"
b1100110100111101 9
b1100110100111101 )
b1100110100111101 3
b1100110100111101 ["
#168000
b1101 .
b1100 /
b10 '
b1110101100011 (
#170000
b111101111000110 O"
b11110111100011 H"
b11110111100011 N"
b11110111100011 G"
b1111011110001 @"
b1111011110001 F"
b1111011110001 ?"
b1111011110 ("
b1111011110 ."
b111101111000 8"
b111101111000 >"
b0 R"
b0 S"
b1111011110 '"
b11110111100 0"
b11110111100 6"
b111101111000 7"
b0 J"
b0 K"
b11110111 v
b11110111 |
b11110111100 /"
b1000000000000000 B"
b1000000000000000 C"
b11110111 u
b111101111 ~
b111101111 &"
b1100000000000000 :"
b1100000000000000 ;"
b111101 f
b111101 l
b111101111 }
b110000000000000 2"
b110000000000000 3"
b111101 e
b1111011 n
b1111011 t
b11000000000000 *"
b11000000000000 +"
b1111011 m
b1100000000000 ""
b1100000000000 #"
b11110 ^
b11110 d
b1000110000000000 x
b1000110000000000 y
b1111 V
b1111 \
b11110 ]
b1100011000000000 p
b1100011000000000 q
b111 N
b111 T
b1111 U
b1110001100000000 h
b1110001100000000 i
b110110010011 !
b110110010011 7
b111 M
b1111000110000000 `
b1111000110000000 a
b1 "
b1 8
b110110010011 X"
b111100011000000 X
b111100011000000 Y
b1 Y"
b1111011110001100 W"
b1011110001100000 P
b1011110001100000 Q
b1101111000110000 H
b1101111000110000 I
b0 Q"
b0 U"
b111101111000110 P"
b111101111000110 V"
b1110111100011000 @
b1110111100011000 A
b1110111100011000 %
b1110111100011000 b"
b1110100111111001 *
b1110100111111001 4
b1110100111111001 :
b1110100111111001 B
b1110100111111001 J
b1110100111111001 R
b1110100111111001 Z
b1110100111111001 b
b1110100111111001 j
b1110100111111001 r
b1110100111111001 z
b1110100111111001 $"
b1110100111111001 ,"
b1110100111111001 4"
b1110100111111001 <"
b1110100111111001 D"
b1110100111111001 L"
b1110100111111001 T"
b1110100111111001 \"
b1111011110001100 9
b1111011110001100 )
b1111011110001100 3
b1111011110001100 ["
#178000
b1111 .
b1110 /
b110110010011 (
b1 '
#180000
b0 "
b0 8
b0 Y"
b10010011000110 W"
b1001001100 8"
b1001001100 >"
b100100110001 H"
b100100110001 N"
b1001001100 7"
b100100110001 G"
b1001001100011 P"
b1001001100011 V"
b1001001100011 O"
b100100110 0"
b100100110 6"
b10010011000 @"
b10010011000 F"
b100100110 /"
b10010011000 ?"
b1001001 ~
b1001001 &"
b1000000000000000 J"
b1000000000000000 K"
b1001 f
b1001 l
b1001001 }
b10010011 ("
b10010011 ."
b1100000000000000 B"
b1100000000000000 C"
b1001 e
b10010011 '"
b110000000000000 :"
b110000000000000 ;"
b100100 v
b100100 |
b11000000000000 2"
b11000000000000 3"
b100 ^
b100 d
b10010 n
b10010 t
b100100 u
b1100000000000 *"
b1100000000000 +"
b100 ]
b10010 m
b1000110000000000 ""
b1000110000000000 #"
b1 N
b1 T
b1100011000000000 x
b1100011000000000 y
b1 M
b10 V
b10 \
b110001100000000 p
b110001100000000 q
b10 U
b11000110000000 h
b11000110000000 i
b0 F
b0 L
b1001100011000000 `
b1001100011000000 a
b0 >
b0 D
b0 E
b100110001100000 X
b100110001100000 Y
b0 #
b0 `"
b0 =
b10011000110000 P
b10011000110000 Q
b0 _"
b10010011000110 !
b10010011000110 7
b1001001100011000 H
b1001001100011000 I
b10010011000110 X"
b100100110001100 @
b100100110001100 A
b100100110001100 %
b100100110001100 b"
b1000010011000101 *
b1000010011000101 4
b1000010011000101 :
b1000010011000101 B
b1000010011000101 J
b1000010011000101 R
b1000010011000101 Z
b1000010011000101 b
b1000010011000101 j
b1000010011000101 r
b1000010011000101 z
b1000010011000101 $"
b1000010011000101 ,"
b1000010011000101 4"
b1000010011000101 <"
b1000010011000101 D"
b1000010011000101 L"
b1000010011000101 T"
b1000010011000101 \"
b10010011000110 9
b10010011000110 )
b10010011000110 3
b10010011000110 ["
#188000
b10001 .
b10000 /
b10010011000110 (
b0 '
#190000
b1101001010101010 !
b1101001010101010 7
b1101001010101010 X"
b1101001010101010 W"
b110100101010101 P"
b110100101010101 V"
b110100101010101 O"
b110100101010 8"
b110100101010 >"
b11010010101010 H"
b11010010101010 N"
b110100101 ~
b110100101 &"
b110100101010 7"
b1101001010101 @"
b1101001010101 F"
b11010010101010 G"
b110100101 }
b1101001010101 ?"
b11010010101 0"
b11010010101 6"
b11010010 v
b11010010 |
b1101001010 ("
b1101001010 ."
b11010010101 /"
b100000000000000 B"
b100000000000000 C"
b11010010 u
b1101001010 '"
b1010000000000000 :"
b1010000000000000 ;"
b101000000000000 2"
b101000000000000 3"
b11010 ^
b11010 d
b1101001 n
b1101001 t
b1010100000000000 *"
b1010100000000000 +"
b11010 ]
b110100 f
b110100 l
b1101001 m
b101010000000000 ""
b101010000000000 #"
b110100 e
b1010101000000000 x
b1010101000000000 y
b1101 V
b1101 \
b101010100000000 p
b101010100000000 q
b110 N
b110 T
b1101 U
b1010101010000000 h
b1010101010000000 i
b11 F
b11 L
b110 M
b101010101000000 `
b101010101000000 a
b1 >
b1 D
b11 E
b10101010100000 X
b10101010100000 Y
b1 #
b1 `"
b1 =
b1001010101010000 P
b1001010101010000 Q
b1 _"
b100101010101000 H
b100101010101000 I
b1010010101010100 @
b1010010101010100 A
b1010010101010100 %
b1010010101010100 b"
b1111011111100101 *
b1111011111100101 4
b1111011111100101 :
b1111011111100101 B
b1111011111100101 J
b1111011111100101 R
b1111011111100101 Z
b1111011111100101 b
b1111011111100101 j
b1111011111100101 r
b1111011111100101 z
b1111011111100101 $"
b1111011111100101 ,"
b1111011111100101 4"
b1111011111100101 <"
b1111011111100101 D"
b1111011111100101 L"
b1111011111100101 T"
b1111011111100101 \"
b1101001010101010 9
b1101001010101010 )
b1101001010101010 3
b1101001010101010 ["
#198000
b10011 .
b10010 /
b1101001010101010 (
